{
    "Autoload": [
        "ParsedownExtra.php",
        "MarkdownPageHandler.php"
    ],
    "Layers": {},
    "Extra": {
        "Meerkat-CEM": true,
        "Meerkat-Extension": {
            "Migrations": [],
			"Parsers": {
				"Meerkat\\Extensions\\Markdown": "Markdown"
			},
            "en-US": {
                "Name": "Markdown",
                "Description": "Parses your pages.",
                "Author": "Meerkat <root@cos.ovh>"
            }
        }		
    }
}