{
  "Autoload": [
    "Framework.php",
    "GenerateSettings.php",
    "Route.php",
    "StacksCompat.php",
    "Home.php"
  ],
  "Layers": {
    "Meerkat\\AdminAPI\\GenerateSettings": "Meerkat\\Extensions\\MouseFramework\\GenerateSettingsLayer",
    "Meerkat\\Routes\\AfterDefaults": "Meerkat\\Extensions\\MouseFramework\\HomeRoutes",
    "Meerkat\\Routes\\AfterPageResolver": "Meerkat\\Extensions\\MouseFramework\\HomeRoutes",
    "Meerkat\\Routes\\BeforeDefaults": "Meerkat\\Extensions\\MouseFramework\\MouseStacksCompat"
  },
  "Extra": {
    "Meerkat-Deprecated": true,
    "Meerkat-Extension": {
      "Migrations": [
        "default"
      ],
      "en-US": {
        "Name": "Theme Framework",
        "Description": "Use or create themes with ease.",
        "Author": "Meerkat <root@cos.ovh>"
      },
      "pl-PL": {
        "Name": "Motywy",
        "Description": "Twórz i używaj motywy z prostotą.",
        "Author": "Meerkat <root@cos.ovh>"
      }
    }
  }
}