{
  "Autoload": [
    "PermissionManager.php",
    "PermissionTable.php",
    "middlewares/Permissions.php",
    "layers/RegisterMiddleware.php"
  ],
  "Layers": {
    "Meerkat\\Routes\\RegisterMiddlewares": "Meerkat\\Extensions\\PermissionsMiddleware\\RegisterMiddleware"
  },
  "Extra": {
    "Meerkat-CEM": true,
    "Meerkat-Extension": {
      "Migrations": [
        "default",
        "administrator"
      ],
      "en-US": {
        "Name": "Permissions",
        "Description": "A middleware to filter unwanted users.",
        "Author": "Meerkat <root@cos.ovh>"
      }
    }
  }
}