{
  "Autoload": [
    "layers/GenerateSettings.php",
    "layers/Authentication.php",
    "layers/CSRF.php",
    "layers/Route.php",
    "controllers/ApplicationController.php"
  ],
  "Layers": {
    "Meerkat\\AdminAPI\\GenerateSettings": "Meerkat\\Extensions\\ApplicationIntegration\\EmbedWidget",
    "Meerkat\\Authentication": "Meerkat\\Extensions\\ApplicationIntegration\\Authentication",
    "Meerkat\\BeforeSetup": "Meerkat\\Extensions\\ApplicationIntegration\\CSRF",
    "Meerkat\\Routes\\BeforeDefaults": "Meerkat\\Extensions\\ApplicationIntegration\\Routes"
  },
  "Extra": {
    "Meerkat-CEM": true,
    "Meerkat-Extension": {
      "Migrations": [
        "default"
      ],
      "Views": "views",
      "en-US": {
        "Name": "Application Integration",
        "Description": "Lets you connect any application to your website.",
        "Author": "Meerkat <root@cos.ovh>"
      }
    }
  }
}