{
  "Autoload": [
    "Register.php"
  ],
  "Layers": {
    "Meerkat\\BeforeSetup": "Meerkat\\Extensions\\Polish\\RegisterAsLanguage"
  },
  "Extra": {
    "Meerkat-Deprecated": true,
    "Meerkat-Extension": {
      "Migrations": [],
      "en-US": {
        "Name": "Polish",
        "Description": "The official translation.",
        "Author": "Meerkat Team <root@cos.ovh>"
      },
      "pl-PL": {
        "Name": "Polski",
        "Description": "Oficjalne tłumaczenie.",
        "Author": "Meerkat Team <root@cos.ovh>"
      }
    }
  }
}