{
  "Name": "MySQL (PDO)",
  "Requirements": [
    "pdo",
    "pdo_mysql"
  ],
  "Configure": {
    "host": "MySQL host (usually localhost)",
    "user": "MySQL username",
    "passwd": "MySQL password",
    "name": "Database Name"
  },
  "Autoload": "MySQL"
}