{
  "Autoload": [],
  "Layers": {},
  "Extra": {
    "Meerkat-CEM": true,
    "Meerkat-Extension": {
      "Migrations": [],
      "en-US": {
        "Name": "English (United States)",
        "Description": "Teach your hamsters how to speak English.",
        "Author": "Meerkat <root@cos.ovh>"
      }
    },
    "Meerkat-Marketplace": {
      "Project": "meerkat/english",
      "Version": "0.7.6",
      "Dependencies": {
        "meerkat/core": "0.7.5"
      }
    }
  }
}